Intro to ECSE/Matlab/Lab 17 part A data 3_3.csv

#Digilent WaveForms Oscilloscope Acquisition,,
#Device Name: Discovery2,,
#Serial Number: SN:210321AA22EE,,
#Date Time: 2019-03-18 13:31:11.950,,
#Sample rate: 4000Hz,,
#Samples: 8192,,
#Trigger: Source: voltage of transistor Type: Edge Condition: Rising Level: 0 V Hyst.: Auto HoldOff: 0 s,,
#voltage of small resistor (470): Range: 500 mV/div Offset: 0 V,,
#current of small resistor: Function: C1 / 470,,
,,
Time (s),voltage of small resistor (470) (V),current of small resistor (mA)
-1.024,-0.000312449,-6.65E-07
-1.02375,2.36E-05,5.03E-08
-1.0235,-0.000312449,-6.65E-07
-1.02325,2.36E-05,5.03E-08
-1.023,-0.000312449,-6.65E-07
-1.02275,2.36E-05,5.03E-08
-1.0225,2.36E-05,5.03E-08
-1.02225,2.36E-05,5.03E-08
-1.022,2.36E-05,5.03E-08
-1.02175,-0.000312449,-6.65E-07
-1.0215,2.36E-05,5.03E-08
-1.02125,-0.000312449,-6.65E-07
-1.021,-0.000312449,-6.65E-07
-1.02075,2.36E-05,5.03E-08
-1.0205,2.36E-05,5.03E-08
-1.02025,2.36E-05,5.03E-08
-1.02,2.36E-05,5.03E-08
-1.01975,2.36E-05,5.03E-08
-1.0195,2.36E-05,5.03E-08
-1.01925,-0.000312449,-6.65E-07
-1.019,2.36E-05,5.03E-08
-1.01875,2.36E-05,5.03E-08
-1.0185,2.36E-05,5.03E-08
-1.01825,2.36E-05,5.03E-08
-1.018,-0.000312449,-6.65E-07
-1.01775,2.36E-05,5.03E-08
-1.0175,2.36E-05,5.03E-08
-1.01725,2.36E-05,5.03E-08
-1.017,2.36E-05,5.03E-08
-1.01675,-0.000312449,-6.65E-07
-1.0165,2.36E-05,5.03E-08
-1.01625,-0.000312449,-6.65E-07
-1.016,2.36E-05,5.03E-08
-1.01575,-0.000312449,-6.65E-07
-1.0155,2.36E-05,5.03E-08
-1.01525,2.36E-05,5.03E-08
-1.015,2.36E-05,5.03E-08
-1.01475,2.36E-05,5.03E-08
-1.0145,2.36E-05,5.03E-08
-1.01425,2.36E-05,5.03E-08
-1.014,2.36E-05,5.03E-08
-1.01375,2.36E-05,5.03E-08
-1.0135,2.36E-05,5.03E-08
-1.01325,2.36E-05,5.03E-08
-1.013,2.36E-05,5.03E-08
-1.01275,2.36E-05,5.03E-08
-1.0125,2.36E-05,5.03E-08
-1.01225,2.36E-05,5.03E-08
-1.012,2.36E-05,5.03E-08
-1.01175,2.36E-05,5.03E-08
-1.0115,2.36E-05,5.03E-08
-1.01125,2.36E-05,5.03E-08
-1.011,2.36E-05,5.03E-08
-1.01075,2.36E-05,5.03E-08
-1.0105,2.36E-05,5.03E-08
-1.01025,2.36E-05,5.03E-08
-1.01,2.36E-05,5.03E-08
-1.00975,2.36E-05,5.03E-08
-1.0095,2.36E-05,5.03E-08
-1.00925,2.36E-05,5.03E-08
-1.009,2.36E-05,5.03E-08
-1.00875,2.36E-05,5.03E-08
-1.0085,2.36E-05,5.03E-08
-1.00825,2.36E-05,5.03E-08
-1.008,2.36E-05,5.03E-08
-1.00775,2.36E-05,5.03E-08
-1.0075,2.36E-05,5.03E-08
-1.00725,2.36E-05,5.03E-08
-1.007,2.36E-05,5.03E-08
-1.00675,2.36E-05,5.03E-08
-1.0065,2.36E-05,5.03E-08
-1.00625,2.36E-05,5.03E-08
-1.006,2.36E-05,5.03E-08
-1.00575,2.36E-05,5.03E-08
-1.0055,2.36E-05,5.03E-08
-1.00525,2.36E-05,5.03E-08
-1.005,2.36E-05,5.03E-08
-1.00475,2.36E-05,5.03E-08
-1.0045,2.36E-05,5.03E-08
-1.00425,2.36E-05,5.03E-08
-1.004,2.36E-05,5.03E-08
-1.00375,2.36E-05,5.03E-08
-1.0035,2.36E-05,5.03E-08
-1.00325,2.36E-05,5.03E-08
-1.003,2.36E-05,5.03E-08
-1.00275,2.36E-05,5.03E-08
-1.0025,2.36E-05,5.03E-08
-1.00225,2.36E-05,5.03E-08
-1.002,2.36E-05,5.03E-08
-1.00175,2.36E-05,5.03E-08
-1.0015,2.36E-05,5.03E-08
-1.00125,2.36E-05,5.03E-08
-1.001,2.36E-05,5.03E-08
-1.00075,2.36E-05,5.03E-08
-1.0005,2.36E-05,5.03E-08
-1.00025,2.36E-05,5.03E-08
-1,2.36E-05,5.03E-08
-0.99975,2.36E-05,5.03E-08
-0.9995,2.36E-05,5.03E-08
-0.99925,2.36E-05,5.03E-08
-0.999,2.36E-05,5.03E-08
-0.99875,2.36E-05,5.03E-08
-0.9985,2.36E-05,5.03E-08
-0.99825,2.36E-05,5.03E-08
-0.998,2.36E-05,5.03E-08
-0.99775,2.36E-05,5.03E-08
-0.9975,2.36E-05,5.03E-08
-0.99725,2.36E-05,5.03E-08
-0.997,2.36E-05,5.03E-08
-0.99675,2.36E-05,5.03E-08
-0.9965,2.36E-05,5.03E-08
-0.99625,2.36E-05,5.03E-08
-0.996,2.36E-05,5.03E-08
-0.99575,2.36E-05,5.03E-08
-0.9955,2.36E-05,5.03E-08
-0.99525,2.36E-05,5.03E-08
-0.995,2.36E-05,5.03E-08
-0.99475,2.36E-05,5.03E-08
-0.9945,2.36E-05,5.03E-08
-0.99425,2.36E-05,5.03E-08
-0.994,2.36E-05,5.03E-08
-0.99375,2.36E-05,5.03E-08
-0.9935,2.36E-05,5.03E-08
-0.99325,2.36E-05,5.03E-08
-0.993,2.36E-05,5.03E-08
-0.99275,2.36E-05,5.03E-08
-0.9925,2.36E-05,5.03E-08
-0.99225,2.36E-05,5.03E-08
-0.992,2.36E-05,5.03E-08
-0.99175,2.36E-05,5.03E-08
-0.9915,2.36E-05,5.03E-08
-0.99125,2.36E-05,5.03E-08
-0.991,2.36E-05,5.03E-08
-0.99075,2.36E-05,5.03E-08
-0.9905,2.36E-05,5.03E-08
-0.99025,2.36E-05,5.03E-08
-0.99,2.36E-05,5.03E-08
-0.98975,2.36E-05,5.03E-08
-0.9895,2.36E-05,5.03E-08
-0.98925,2.36E-05,5.03E-08
-0.989,2.36E-05,5.03E-08
-0.98875,2.36E-05,5.03E-08
-0.9885,2.36E-05,5.03E-08
-0.98825,2.36E-05,5.03E-08
-0.988,2.36E-05,5.03E-08
-0.98775,2.36E-05,5.03E-08
-0.9875,2.36E-05,5.03E-08
-0.98725,2.36E-05,5.03E-08
-0.987,2.36E-05,5.03E-08
-0.98675,2.36E-05,5.03E-08
-0.9865,2.36E-05,5.03E-08
-0.98625,2.36E-05,5.03E-08
-0.986,2.36E-05,5.03E-08
-0.98575,2.36E-05,5.03E-08
-0.9855,2.36E-05,5.03E-08
-0.98525,2.36E-05,5.03E-08
-0.985,2.36E-05,5.03E-08
-0.98475,2.36E-05,5.03E-08
-0.9845,2.36E-05,5.03E-08
-0.98425,2.36E-05,5.03E-08
-0.984,2.36E-05,5.03E-08
-0.98375,2.36E-05,5.03E-08
-0.9835,2.36E-05,5.03E-08
-0.98325,2.36E-05,5.03E-08
-0.983,2.36E-05,5.03E-08
-0.98275,2.36E-05,5.03E-08
-0.9825,2.36E-05,5.03E-08
-0.98225,2.36E-05,5.03E-08
-0.982,2.36E-05,5.03E-08
-0.98175,2.36E-05,5.03E-08
-0.9815,2.36E-05,5.03E-08
-0.98125,0.000359735,7.65E-07
-0.981,2.36E-05,5.03E-08
-0.98075,2.36E-05,5.03E-08
-0.9805,2.36E-05,5.03E-08
-0.98025,0.000359735,7.65E-07
-0.98,2.36E-05,5.03E-08
-0.97975,2.36E-05,5.03E-08
-0.9795,2.36E-05,5.03E-08
-0.97925,2.36E-05,5.03E-08
-0.979,2.36E-05,5.03E-08
-0.97875,2.36E-05,5.03E-08
-0.9785,2.36E-05,5.03E-08
-0.97825,2.36E-05,5.03E-08
-0.978,2.36E-05,5.03E-08
-0.97775,0.000359735,7.65E-07
-0.9775,2.36E-05,5.03E-08
-0.97725,2.36E-05,5.03E-08
-0.977,2.36E-05,5.03E-08
-0.97675,2.36E-05,5.03E-08
-0.9765,0.000359735,7.65E-07
-0.97625,0.000359735,7.65E-07
-0.976,2.36E-05,5.03E-08
-0.97575,0.000359735,7.65E-07
-0.9755,0.000359735,7.65E-07
-0.97525,0.000359735,7.65E-07
-0.975,0.000359735,7.65E-07
-0.97475,0.000359735,7.65E-07
-0.9745,0.000359735,7.65E-07
-0.97425,0.000359735,7.65E-07
-0.974,0.000359735,7.65E-07
-0.97375,0.000359735,7.65E-07
-0.9735,0.000359735,7.65E-07
-0.97325,0.000359735,7.65E-07
-0.973,0.000359735,7.65E-07
-0.97275,0.000359735,7.65E-07
-0.9725,0.000359735,7.65E-07
-0.97225,0.000359735,7.65E-07
-0.972,0.000359735,7.65E-07
-0.97175,0.000359735,7.65E-07
-0.9715,0.000359735,7.65E-07
-0.97125,0.000359735,7.65E-07
-0.971,0.000359735,7.65E-07
-0.97075,0.000359735,7.65E-07
-0.9705,0.000359735,7.65E-07
-0.97025,0.000359735,7.65E-07
-0.97,0.000359735,7.65E-07
-0.96975,0.000359735,7.65E-07
-0.9695,0.000359735,7.65E-07
-0.96925,0.000359735,7.65E-07
-0.969,0.000359735,7.65E-07
-0.96875,0.000359735,7.65E-07
-0.9685,0.000359735,7.65E-07
-0.96825,0.000359735,7.65E-07
-0.968,0.000359735,7.65E-07
-0.96775,0.000359735,7.65E-07
-0.9675,0.000359735,7.65E-07
-0.96725,0.000359735,7.65E-07
-0.967,0.000359735,7.65E-07
-0.96675,0.000359735,7.65E-07
-0.9665,0.000359735,7.65E-07
-0.96625,0.000359735,7.65E-07
-0.966,0.000359735,7.65E-07
-0.96575,0.000359735,7.65E-07
-0.9655,0.000359735,7.65E-07
-0.96525,0.000359735,7.65E-07
-0.965,0.000359735,7.65E-07
-0.96475,0.000359735,7.65E-07
-0.9645,0.000359735,7.65E-07
-0.96425,0.000359735,7.65E-07
-0.964,0.000359735,7.65E-07
-0.96375,0.000359735,7.65E-07
-0.9635,0.000359735,7.65E-07
-0.96325,0.000359735,7.65E-07
-0.963,0.000359735,7.65E-07
-0.96275,0.000359735,7.65E-07
-0.9625,0.000359735,7.65E-07
-0.96225,0.000359735,7.65E-07
-0.962,0.000359735,7.65E-07
-0.96175,0.000359735,7.65E-07
-0.9615,0.000359735,7.65E-07
-0.96125,0.000359735,7.65E-07
-0.961,0.000695827,1.48E-06
-0.96075,0.000695827,1.48E-06
-0.9605,0.000695827,1.48E-06
-0.96025,0.000695827,1.48E-06
-0.96,0.000695827,1.48E-06
-0.95975,0.000695827,1.48E-06
-0.9595,0.000695827,1.48E-06
-0.95925,0.000695827,1.48E-06
-0.959,0.000359735,7.65E-07
-0.95875,0.000359735,7.65E-07
-0.9585,0.000695827,1.48E-06
-0.95825,0.000695827,1.48E-06
-0.958,0.000695827,1.48E-06
-0.95775,0.000695827,1.48E-06
-0.9575,0.000695827,1.48E-06
-0.95725,0.000695827,1.48E-06
-0.957,0.000695827,1.48E-06
-0.95675,0.000695827,1.48E-06
-0.9565,0.000695827,1.48E-06
-0.95625,0.000695827,1.48E-06
-0.956,0.000695827,1.48E-06
-0.95575,0.000695827,1.48E-06
-0.9555,0.000695827,1.48E-06
-0.95525,0.00103192,2.20E-06
-0.955,0.000695827,1.48E-06
-0.95475,0.00103192,2.20E-06
-0.9545,0.000695827,1.48E-06
-0.95425,0.00103192,2.20E-06
-0.954,0.00103192,2.20E-06
-0.95375,0.00103192,2.20E-06
-0.9535,0.00103192,2.20E-06
-0.95325,0.00103192,2.20E-06
-0.953,0.00103192,2.20E-06
-0.95275,0.00103192,2.20E-06
-0.9525,0.00103192,2.20E-06
-0.95225,0.00103192,2.20E-06
-0.952,0.00103192,2.20E-06
-0.95175,0.00103192,2.20E-06
-0.9515,0.00103192,2.20E-06
-0.95125,0.00103192,2.20E-06
-0.951,0.00103192,2.20E-06
-0.95075,0.00103192,2.20E-06
-0.9505,0.00136801,2.91E-06
-0.95025,0.00103192,2.20E-06
-0.95,0.00136801,2.91E-06
-0.94975,0.00136801,2.91E-06
-0.9495,0.00136801,2.91E-06
-0.94925,0.00136801,2.91E-06
-0.949,0.00136801,2.91E-06
-0.94875,0.00136801,2.91E-06
-0.9485,0.00136801,2.91E-06
-0.94825,0.00136801,2.91E-06
-0.948,0.00136801,2.91E-06
-0.94775,0.00136801,2.91E-06
-0.9475,0.0017041,3.63E-06
-0.94725,0.00136801,2.91E-06
-0.947,0.00136801,2.91E-06
-0.94675,0.0017041,3.63E-06
-0.9465,0.0017041,3.63E-06
-0.94625,0.0017041,3.63E-06
-0.946,0.0017041,3.63E-06
-0.94575,0.0017041,3.63E-06
-0.9455,0.0017041,3.63E-06
-0.94525,0.0017041,3.63E-06
-0.945,0.0017041,3.63E-06
-0.94475,0.0017041,3.63E-06
-0.9445,0.0017041,3.63E-06
-0.94425,0.0017041,3.63E-06
-0.944,0.0020402,4.34E-06
-0.94375,0.0020402,4.34E-06
-0.9435,0.0020402,4.34E-06
-0.94325,0.0020402,4.34E-06
-0.943,0.0020402,4.34E-06
-0.94275,0.0020402,4.34E-06
-0.9425,0.0020402,4.34E-06
-0.94225,0.00237629,5.06E-06
-0.942,0.00237629,5.06E-06
-0.94175,0.00237629,5.06E-06
-0.9415,0.00237629,5.06E-06
-0.94125,0.00237629,5.06E-06
-0.941,0.00271238,5.77E-06
-0.94075,0.00271238,5.77E-06
-0.9405,0.00271238,5.77E-06
-0.94025,0.00304847,6.49E-06
-0.94,0.00304847,6.49E-06
-0.93975,0.00304847,6.49E-06
-0.9395,0.00338456,7.20E-06
-0.93925,0.00338456,7.20E-06
-0.939,0.00372066,7.92E-06
-0.93875,0.00405675,8.63E-06
-0.9385,0.00405675,8.63E-06
-0.93825,0.00472893,1.01E-05
-0.938,0.00573721,1.22E-05
-0.93775,0.245707,0.000522781
-0.9375,1.29364,0.00275243
-0.93725,1.28927,0.00274313
-0.937,1.28558,0.00273527
-0.93675,1.28121,0.00272597
-0.9365,1.27751,0.0027181
-0.93625,1.27381,0.00271024
-0.936,1.27012,0.00270237
-0.93575,1.26642,0.00269451
-0.9355,1.26239,0.00268593
-0.93525,1.25869,0.00267806
-0.935,1.25499,0.00267019
-0.93475,1.25129,0.00266233
-0.9345,1.24793,0.00265518
-0.93425,1.24424,0.00264731
-0.934,1.24054,0.00263944
-0.93375,1.23651,0.00263086
-0.9335,1.23315,0.00262371
-0.93325,1.22978,0.00261656
-0.933,1.22609,0.0026087
-0.93275,1.22239,0.00260083
-0.9325,1.21903,0.00259368
-0.93225,1.215,0.0025851
-0.932,1.21164,0.00257795
-0.93175,1.20827,0.0025708
-0.9315,1.20458,0.00256293
-0.93125,1.20122,0.00255578
-0.931,1.19752,0.00254791
-0.93075,1.19416,0.00254076
-0.9305,1.1908,0.00253361
-0.93025,1.18744,0.00252646
-0.93,1.18374,0.00251859
-0.92975,1.18038,0.00251144
-0.9295,1.17702,0.00250429
-0.92925,1.17332,0.00249643
-0.929,1.16996,0.00248928
-0.92875,1.1666,0.00248213
-0.9285,1.16324,0.00247497
-0.92825,1.15988,0.00246782
-0.928,1.15618,0.00245996
-0.92775,1.15282,0.00245281
-0.9275,1.14979,0.00244637
-0.92725,1.1461,0.0024385
-0.927,1.14307,0.00243207
-0.92675,1.13971,0.00242492
-0.9265,1.13635,0.00241777
-0.92625,1.13265,0.0024099
-0.926,1.12963,0.00240347
-0.92575,1.12627,0.00239631
-0.9255,1.12291,0.00238916
-0.92525,1.11955,0.00238201
-0.925,1.11619,0.00237486
-0.92475,1.11282,0.00236771
-0.9245,1.10946,0.00236056
-0.92425,1.10644,0.00235412
-0.924,1.10308,0.00234697
-0.92375,1.09972,0.00233982
-0.9235,1.09669,0.00233339
-0.92325,1.09333,0.00232624
-0.923,1.09031,0.0023198
-0.92275,1.08695,0.00231265
-0.9225,1.08358,0.0023055
-0.92225,1.08056,0.00229906
-0.922,1.07753,0.00229263
-0.92175,1.07417,0.00228548
-0.9215,1.07081,0.00227832
-0.92125,1.06745,0.00227117
-0.921,1.06443,0.00226474
-0.92075,1.0614,0.0022583
-0.9205,1.05838,0.00225187
-0.92025,1.05502,0.00224472
-0.92,1.05199,0.00223828
-0.91975,1.04863,0.00223113
-0.9195,1.04561,0.00222469
-0.91925,1.04224,0.00221754
-0.919,1.03922,0.00221111
-0.91875,1.0362,0.00220467
-0.9185,1.03317,0.00219823
-0.91825,1.02981,0.00219108
-0.918,1.02678,0.00218465
-0.91775,1.02342,0.0021775
-0.9175,1.0204,0.00217106
-0.91725,1.01737,0.00216463
-0.917,1.01435,0.00215819
-0.91675,1.01166,0.00215247
-0.9165,1.0083,0.00214532
-0.91625,1.00527,0.00213888
-0.916,1.00225,0.00213245
-0.91575,0.999225,0.00212601
-0.9155,0.9962,0.00211958
-0.91525,0.993175,0.00211314
-0.915,0.990151,0.0021067
-0.91475,0.987126,0.00210027
-0.9145,0.984101,0.00209383
-0.91425,0.981076,0.0020874
-0.914,0.978051,0.00208096
-0.91375,0.975026,0.00207452
-0.9135,0.972338,0.0020688
-0.91325,0.968977,0.00206165
-0.913,0.966288,0.00205593
-0.91275,0.963263,0.0020495
-0.9125,0.960238,0.00204306
-0.91225,0.957214,0.00203662
-0.912,0.954189,0.00203019
-0.91175,0.951164,0.00202375
-0.9115,0.948475,0.00201803
-0.91125,0.94545,0.0020116
-0.911,0.942426,0.00200516
-0.91075,0.939401,0.00199872
-0.9105,0.936376,0.00199229
-0.91025,0.933687,0.00198657
-0.91,0.930662,0.00198013
-0.90975,0.927974,0.00197441
-0.9095,0.924949,0.00196798
-0.90925,0.921924,0.00196154
-0.909,0.919235,0.00195582
-0.90875,0.91621,0.00194938
-0.9085,0.913186,0.00194295
-0.90825,0.910497,0.00193723
-0.908,0.907472,0.00193079
-0.90775,0.904783,0.00192507
-0.9075,0.901758,0.00191863
-0.90725,0.89907,0.00191291
-0.907,0.896045,0.00190648
-0.90675,0.89302,0.00190004
-0.9065,0.890331,0.00189432
-0.90625,0.887643,0.0018886
-0.906,0.884618,0.00188217
-0.90575,0.881929,0.00187644
-0.9055,0.878904,0.00187001
-0.90525,0.876215,0.00186429
-0.905,0.873191,0.00185785
-0.90475,0.870502,0.00185213
-0.9045,0.867477,0.0018457
-0.90425,0.864788,0.00183998
-0.904,0.861763,0.00183354
-0.90375,0.859075,0.00182782
-0.9035,0.85605,0.00182138
-0.90325,0.853361,0.00181566
-0.903,0.850672,0.00180994
-0.90275,0.847984,0.00180422
-0.9025,0.845295,0.0017985
-0.90225,0.842606,0.00179278
-0.902,0.839581,0.00178634
-0.90175,0.836557,0.00177991
-0.9015,0.834204,0.0017749
-0.90125,0.831515,0.00176918
-0.901,0.828826,0.00176346
-0.90075,0.825802,0.00175702
-0.9005,0.823113,0.0017513
-0.90025,0.820424,0.00174558
-0.9,0.817735,0.00173986
-0.89975,0.815047,0.00173414
-0.8995,0.812022,0.00172771
-0.89925,0.809333,0.00172199
-0.899,0.806644,0.00171626
-0.89875,0.803956,0.00171054
-0.8985,0.801603,0.00170554
-0.89825,0.798578,0.0016991
-0.898,0.796226,0.0016941
-0.89775,0.793201,0.00168766
-0.8975,0.790512,0.00168194
-0.89725,0.788159,0.00167693
-0.897,0.785135,0.0016705
-0.89675,0.782446,0.00166478
-0.8965,0.779757,0.00165906
-0.89625,0.777068,0.00165334
-0.896,0.77438,0.00164762
-0.89575,0.771691,0.0016419
-0.8955,0.769002,0.00163617
-0.89525,0.766313,0.00163045
-0.895,0.763625,0.00162473
-0.89475,0.760936,0.00161901
-0.8945,0.758583,0.00161401
-0.89425,0.755558,0.00160757
-0.894,0.75287,0.00160185
-0.89375,0.750517,0.00159684
-0.8935,0.747828,0.00159112
-0.89325,0.74514,0.0015854
-0.893,0.742451,0.00157968
-0.89275,0.739762,0.00157396
-0.8925,0.737073,0.00156824
-0.89225,0.734385,0.00156252
-0.892,0.731696,0.0015568
-0.89175,0.729007,0.00155108
-0.8915,0.726318,0.00154536
-0.89125,0.723966,0.00154035
-0.891,0.721277,0.00153463
-0.89075,0.718588,0.00152891
-0.8905,0.7159,0.00152319
-0.89025,0.713547,0.00151818
-0.89,0.710858,0.00151246
-0.88975,0.708169,0.00150674
-0.8895,0.705481,0.00150102
-0.88925,0.702792,0.0014953
-0.889,0.700103,0.00148958
-0.88875,0.697415,0.00148386
-0.8885,0.695062,0.00147886
-0.88825,0.692373,0.00147313
-0.888,0.689684,0.00146741
-0.88775,0.687332,0.00146241
-0.8875,0.684307,0.00145597
-0.88725,0.681954,0.00145097
-0.887,0.679266,0.00144525
-0.88675,0.676577,0.00143953
-0.8865,0.674224,0.00143452
-0.88625,0.671535,0.0014288
-0.886,0.669183,0.00142379
-0.88575,0.666494,0.00141807
-0.8855,0.663805,0.00141235
-0.88525,0.661117,0.00140663
-0.885,0.658428,0.00140091
-0.88475,0.655739,0.00139519
-0.8845,0.65305,0.00138947
-0.88425,0.650698,0.00138446
-0.884,0.648009,0.00137874
-0.88375,0.645656,0.00137374
-0.8835,0.642968,0.00136802
-0.88325,0.640279,0.0013623
-0.883,0.63759,0.00135657
-0.88275,0.634901,0.00135085
-0.8825,0.632549,0.00134585
-0.88225,0.62986,0.00134013
-0.882,0.627171,0.00133441
-0.88175,0.624819,0.0013294
-0.8815,0.62213,0.00132368
-0.88125,0.619441,0.00131796
-0.881,0.616752,0.00131224
-0.88075,0.614064,0.00130652
-0.8805,0.611375,0.0013008
-0.88025,0.608686,0.00129508
-0.88,0.606334,0.00129007
-0.87975,0.603645,0.00128435
-0.8795,0.600956,0.00127863
-0.87925,0.598267,0.00127291
-0.879,0.595579,0.00126719
-0.87875,0.59289,0.00126147
-0.8785,0.590201,0.00125575
-0.87825,0.587849,0.00125074
-0.878,0.58516,0.00124502
-0.87775,0.582135,0.00123859
-0.8775,0.579782,0.00123358
-0.87725,0.576757,0.00122714
-0.877,0.574069,0.00122142
-0.87675,0.57138,0.0012157
-0.8765,0.568691,0.00120998
-0.87625,0.566003,0.00120426
-0.876,0.563314,0.00119854
-0.87575,0.560625,0.00119282
-0.8755,0.557936,0.0011871
-0.87525,0.554912,0.00118066
-0.875,0.552223,0.00117494
-0.87475,0.549198,0.00116851
-0.8745,0.546845,0.0011635
-0.87425,0.54382,0.00115706
-0.874,0.541132,0.00115134
-0.87375,0.538107,0.00114491
-0.8735,0.535418,0.00113919
-0.87325,0.532393,0.00113275
-0.873,0.529369,0.00112632
-0.87275,0.52668,0.0011206
-0.8725,0.523655,0.00111416
-0.87225,0.520966,0.00110844
-0.872,0.517605,0.00110129
-0.87175,0.514917,0.00109557
-0.8715,0.511892,0.00108913
-0.87125,0.508867,0.0010827
-0.871,0.505842,0.00107626
-0.87075,0.502817,0.00106982
-0.8705,0.499456,0.00106267
-0.87025,0.496431,0.00105624
-0.87,0.493071,0.00104909
-0.86975,0.490046,0.00104265
-0.8695,0.487021,0.00103621
-0.86925,0.483324,0.00102835
-0.869,0.479963,0.0010212
-0.86875,0.476938,0.00101476
-0.8685,0.473241,0.0010069
-0.86825,0.469544,0.00099903
-0.868,0.465847,0.000991164
-0.86775,0.46215,0.000983298
-0.8675,0.458453,0.000975432
-0.86725,0.45442,0.000966851
-0.867,0.450387,0.00095827
-0.86675,0.446018,0.000948974
-0.8665,0.441649,0.000939678
-0.86625,0.436943,0.000929666
-0.866,0.431902,0.00091894
-0.86575,0.426524,0.000907499
-0.8655,0.420475,0.000894627
-0.86525,0.413753,0.000880325
-0.865,0.405351,0.000862448
-0.86475,0.393587,0.00083742
-0.8645,0.339477,0.000722291
-0.86425,0.0017041,3.63E-06
-0.864,-0.000312449,-6.65E-07
-0.86375,-0.000312449,-6.65E-07
-0.8635,-0.000312449,-6.65E-07
-0.86325,-0.000312449,-6.65E-07
-0.863,-0.000312449,-6.65E-07
-0.86275,-0.000312449,-6.65E-07
-0.8625,-0.000312449,-6.65E-07
-0.86225,-0.000312449,-6.65E-07
-0.862,-0.000312449,-6.65E-07
-0.86175,-0.000312449,-6.65E-07
-0.8615,-0.000312449,-6.65E-07
-0.86125,-0.000312449,-6.65E-07
-0.861,-0.000312449,-6.65E-07
-0.86075,-0.000312449,-6.65E-07
-0.8605,-0.000312449,-6.65E-07
-0.86025,-0.000312449,-6.65E-07
-0.86,-0.000312449,-6.65E-07
-0.85975,-0.000312449,-6.65E-07
-0.8595,-0.000312449,-6.65E-07
-0.85925,-0.000312449,-6.65E-07
-0.859,-0.000312449,-6.65E-07
-0.85875,-0.000312449,-6.65E-07
-0.8585,-0.000312449,-6.65E-07
-0.85825,-0.000312449,-6.65E-07
-0.858,-0.000312449,-6.65E-07
-0.85775,-0.000312449,-6.65E-07
-0.8575,-0.000312449,-6.65E-07
-0.85725,-0.000312449,-6.65E-07
-0.857,-0.000312449,-6.65E-07
-0.85675,-0.000312449,-6.65E-07
-0.8565,-0.000312449,-6.65E-07
-0.85625,-0.000312449,-6.65E-07
-0.856,-0.000312449,-6.65E-07
-0.85575,-0.000312449,-6.65E-07
-0.8555,-0.000312449,-6.65E-07
-0.85525,-0.000312449,-6.65E-07
-0.855,-0.000312449,-6.65E-07
-0.85475,-0.000312449,-6.65E-07
-0.8545,-0.000312449,-6.65E-07
-0.85425,-0.000312449,-6.65E-07
-0.854,-0.000312449,-6.65E-07
-0.85375,-0.000312449,-6.65E-07
-0.8535,-0.000312449,-6.65E-07
-0.85325,-0.000312449,-6.65E-07
-0.853,-0.000312449,-6.65E-07
-0.85275,-0.000312449,-6.65E-07
-0.8525,-0.000312449,-6.65E-07
-0.85225,-0.000312449,-6.65E-07
-0.852,-0.000312449,-6.65E-07
-0.85175,-0.000312449,-6.65E-07
-0.8515,-0.000312449,-6.65E-07
-0.85125,-0.000312449,-6.65E-07
-0.851,-0.000312449,-6.65E-07
-0.85075,-0.000312449,-6.65E-07
-0.8505,-0.000312449,-6.65E-07
-0.85025,-0.000312449,-6.65E-07
-0.85,-0.000312449,-6.65E-07
-0.84975,-0.000312449,-6.65E-07
-0.8495,-0.000312449,-6.65E-07
